org\sturgeon\sdial\ussd\states\State$11.class
org\sturgeon\sdial\common\repository\SubCountyRepository.class
org\sturgeon\sdial\common\repository\SmsContactGroupRepository.class
org\sturgeon\sdial\common\model\FeeBalance.class
org\sturgeon\sdial\common\repository\FeeBalanceRepository.class
org\sturgeon\sdial\portal\service\user\UserService.class
org\sturgeon\sdial\common\repository\FeeItemAmountRepository.class
org\sturgeon\sdial\ussd\utils\Response.class
org\sturgeon\sdial\common\repository\SmsMessageRepository.class
org\sturgeon\sdial\common\repository\AdmissionRepository.class
org\sturgeon\sdial\ussd\states\State$2.class
org\sturgeon\sdial\common\model\DirectMessage.class
org\sturgeon\sdial\common\model\Announcement.class
org\sturgeon\sdial\common\repository\SchoolLevelRepository.class
org\sturgeon\sdial\mobileapp\utils\PushNotification.class
org\sturgeon\sdial\common\model\Student.class
org\sturgeon\sdial\common\model\SchoolPeriod.class
org\sturgeon\sdial\common\repository\SchoolLevelPeriodRepository.class
org\sturgeon\sdial\common\repository\SchoolPeriodRepository.class
org\sturgeon\sdial\common\model\forms\AdmissionForm.class
org\sturgeon\sdial\ussd\states\State$3.class
org\sturgeon\sdial\mobileapp\utils\FeeItemResponse.class
org\sturgeon\sdial\common\service\school\SchoolFeesServiceImpl.class
org\sturgeon\sdial\common\service\school\SchoolServiceImpl.class
org\sturgeon\sdial\sms\handler\SMSSendService.class
org\sturgeon\sdial\common\repository\FeeItemRepository.class
org\sturgeon\sdial\common\model\forms\VerificationForm.class
org\sturgeon\sdial\mobileapp\utils\SchoolPeriodResponse.class
org\sturgeon\sdial\portal\controller\LoginController.class
org\sturgeon\sdial\ussd\states\State$4.class
org\sturgeon\sdial\common\model\forms\SchoolPeriodForm.class
org\sturgeon\sdial\common\repository\CountyRepository.class
org\sturgeon\sdial\mobileapp\controller\MobileAppController.class
org\sturgeon\sdial\common\repository\SchoolReferralRepository.class
org\sturgeon\sdial\common\service\school\AnnouncementService.class
org\sturgeon\sdial\common\model\validator\SchoolCreateFormValidator.class
org\sturgeon\sdial\common\service\school\SchoolTypeService.class
org\sturgeon\sdial\common\model\forms\ParentAddForm.class
org\sturgeon\sdial\common\repository\StudentRepository.class
org\sturgeon\sdial\ussd\states\State$10.class
org\sturgeon\sdial\ussd\states\State$12.class
org\sturgeon\sdial\common\model\validator\StudentCreateFormValidator.class
org\sturgeon\sdial\common\service\school\SmsContactServiceImpl.class
org\sturgeon\sdial\mobileapp\utils\SchoolBioMinimalResponse.class
org\sturgeon\sdial\mobileapp\utils\StudentResponse.class
org\sturgeon\sdial\common\model\CurrentUser.class
org\sturgeon\sdial\common\model\validator\UserCreateFormValidator.class
org\sturgeon\sdial\mobileapp\utils\SchoolSearchDropdowns.class
org\sturgeon\sdial\portal\controller\CurrentUserControllerAdvice.class
org\sturgeon\sdial\common\repository\StudentGroupRepository.class
org\sturgeon\sdial\common\model\SmsContactGroup.class
org\sturgeon\sdial\common\service\school\AnnouncementServiceImpl.class
org\sturgeon\sdial\common\model\EventStudentGroup.class
org\sturgeon\sdial\common\model\forms\StudentGroupCreateForm.class
org\sturgeon\sdial\common\repository\DirectMessageRepository.class
org\sturgeon\sdial\mobileapp\utils\ExamResultsResponse.class
org\sturgeon\sdial\ussd\states\State.class
org\sturgeon\sdial\common\service\school\ExamResultsServiceImpl.class
org\sturgeon\sdial\mobileapp\service\JCMPushNotificationService.class
org\sturgeon\sdial\common\model\forms\SmsContactCreateForm.class
org\sturgeon\sdial\ussd\states\State$5.class
org\sturgeon\sdial\common\model\forms\EventCreateForm.class
org\sturgeon\sdial\common\model\forms\DirectMessageSubscriberForm.class
org\sturgeon\sdial\mobileapp\service\SubscriberService.class
org\sturgeon\sdial\common\repository\AnnouncementStudentGroupRepository.class
org\sturgeon\sdial\common\model\forms\SelectedSchoolLevelForm.class
org\sturgeon\sdial\common\model\forms\ExamResultsForm.class
org\sturgeon\sdial\common\model\SchoolBio.class
org\sturgeon\sdial\portal\service\handler\UploadHandler.class
org\sturgeon\sdial\mobileapp\utils\AdmissionDropdowns.class
org\sturgeon\sdial\common\model\forms\SchoolLevelForm.class
org\sturgeon\sdial\portal\configuration\SecurityConfiguration.class
org\sturgeon\sdial\mobileapp\service\SubscriberServiceImpl.class
org\sturgeon\sdial\common\service\school\EventService.class
org\sturgeon\sdial\sms\service\SmsServiceImpl.class
org\sturgeon\sdial\common\model\SubscriberStudent.class
org\sturgeon\sdial\common\model\forms\SchoolCreateForm.class
org\sturgeon\sdial\common\model\Email.class
org\sturgeon\sdial\ussd\states\State$1.class
org\sturgeon\sdial\common\model\forms\SchoolTypeAddForm.class
org\sturgeon\sdial\common\model\forms\StudentCreateFormApp.class
org\sturgeon\sdial\common\service\school\SmsContactService.class
org\sturgeon\sdial\common\repository\PhoneNumberRepository.class
org\sturgeon\sdial\common\model\forms\PushNotificationForm.class
org\sturgeon\sdial\Application.class
org\sturgeon\sdial\common\service\school\SchoolService.class
org\sturgeon\sdial\common\repository\EventStudentGroupRepository.class
org\sturgeon\sdial\common\repository\EmailRepository.class
org\sturgeon\sdial\ussd\states\State$9.class
org\sturgeon\sdial\portal\controller\PortalController.class
org\sturgeon\sdial\common\repository\SubscriberStudentRepository.class
org\sturgeon\sdial\common\repository\AnnouncementRepository.class
org\sturgeon\sdial\ussd\transport\SafaricomRequest.class
org\sturgeon\sdial\common\model\SmsContact.class
org\sturgeon\sdial\portal\utilpojos\ParentSubtable.class
org\sturgeon\sdial\common\service\school\SchoolPeriodService.class
org\sturgeon\sdial\common\service\school\EventServiceImpl.class
org\sturgeon\sdial\ussd\controller\UssdController.class
org\sturgeon\sdial\common\repository\QualificationLevelRepository.class
org\sturgeon\sdial\common\model\SubCounty.class
org\sturgeon\sdial\ussd\states\State$13.class
org\sturgeon\sdial\common\model\ExamResults.class
org\sturgeon\sdial\common\model\forms\StudentEditForm.class
org\sturgeon\sdial\common\repository\SchoolTypeRepository.class
org\sturgeon\sdial\common\model\PortalUser.class
org\sturgeon\sdial\common\service\school\ExamService.class
org\sturgeon\sdial\common\model\forms\SchoolBioForm.class
org\sturgeon\sdial\portal\service\currentuser\CurrentUserDetailsService.class
org\sturgeon\sdial\common\model\forms\AnnouncementCreateForm.class
org\sturgeon\sdial\common\model\forms\FeeBalanceForm.class
org\sturgeon\sdial\mobileapp\utils\FirebaseResponse.class
org\sturgeon\sdial\common\model\Event.class
org\sturgeon\sdial\common\model\forms\DirectMessageSchoolForm.class
org\sturgeon\sdial\portal\controller\UploadController.class
org\sturgeon\sdial\common\model\AnnouncementStudentGroup.class
org\sturgeon\sdial\sms\service\SmsService.class
org\sturgeon\sdial\common\model\forms\SmsMessageForm.class
org\sturgeon\sdial\sms\utils\UjumbeSMSResponse$Status.class
org\sturgeon\sdial\portal\controller\RegistrationController.class
org\sturgeon\sdial\common\model\forms\FeeItemForm.class
org\sturgeon\sdial\common\service\school\SchoolLevelService.class
org\sturgeon\sdial\ussd\session\Session.class
org\sturgeon\sdial\common\repository\UserRepository.class
org\sturgeon\sdial\ussd\states\State$7.class
org\sturgeon\sdial\mobileapp\utils\SchoolLevelResponse.class
org\sturgeon\sdial\ussd\handlers\ProcessUSSD.class
org\sturgeon\sdial\common\model\forms\FeeItemAmountForm.class
org\sturgeon\sdial\common\repository\SchoolLevelPeriodTotalRepository.class
org\sturgeon\sdial\common\service\school\SchoolTypeServiceImpl.class
org\sturgeon\sdial\ussd\states\State$8.class
org\sturgeon\sdial\common\model\forms\PhoneNumberAddForm.class
org\sturgeon\sdial\common\model\forms\SchoolReferralForm.class
org\sturgeon\sdial\common\model\Admission.class
org\sturgeon\sdial\common\repository\SubscriberRepository.class
org\sturgeon\sdial\common\model\Subscriber$CustomFeeItem.class
org\sturgeon\sdial\portal\service\user\UserServiceImpl.class
org\sturgeon\sdial\common\model\forms\SubscriberLoginForm.class
org\sturgeon\sdial\sms\utils\SmsMessageBag.class
org\sturgeon\sdial\common\model\forms\SchoolLevelPeriodForm.class
org\sturgeon\sdial\common\service\school\StudentService.class
org\sturgeon\sdial\mobileapp\utils\CountyResponse.class
org\sturgeon\sdial\common\model\forms\ParentEditForm.class
org\sturgeon\sdial\ussd\transport\AirtelRequest.class
org\sturgeon\sdial\common\model\PhoneNumber.class
org\sturgeon\sdial\common\repository\ExamRepository.class
org\sturgeon\sdial\ussd\states\State$14.class
org\sturgeon\sdial\mobileapp\utils\SchoolTypeResponse.class
org\sturgeon\sdial\mobileapp\utils\SchoolPeriodTotalResponse.class
org\sturgeon\sdial\common\service\school\StudentServiceImpl.class
org\sturgeon\sdial\ussd\handlers\ServiceManager.class
org\sturgeon\sdial\ussd\session\SessionManager.class
org\sturgeon\sdial\common\model\forms\SubscriberAddForm.class
org\sturgeon\sdial\common\repository\ExamResultsRepository.class
org\sturgeon\sdial\common\model\Exam.class
org\sturgeon\sdial\mobileapp\utils\SchoolFeesDropdowns.class
org\sturgeon\sdial\common\model\County.class
org\sturgeon\sdial\common\service\school\SchoolFeesService.class
org\sturgeon\sdial\common\service\school\SchoolLevelServiceImpl.class
org\sturgeon\sdial\mobileapp\utils\LoginResponse.class
org\sturgeon\sdial\common\service\school\SchoolPeriodServiceImpl.class
org\sturgeon\sdial\mobileapp\utils\HeaderRequestInterceptor.class
org\sturgeon\sdial\common\model\QualificationLevel.class
org\sturgeon\sdial\sms\utils\SmsRequest.class
org\sturgeon\sdial\ussd\states\StateInterface.class
org\sturgeon\sdial\common\model\SchoolLevelPeriodTotal.class
org\sturgeon\sdial\common\model\SmsMessage.class
org\sturgeon\sdial\common\model\forms\StudentGroupAddForm.class
org\sturgeon\sdial\sms\utils\UjumbeSMSResponse$Meta.class
org\sturgeon\sdial\common\model\StudentGroup.class
org\sturgeon\sdial\common\model\forms\EmailAddForm.class
org\sturgeon\sdial\common\repository\SchoolRepository.class
org\sturgeon\sdial\common\model\SchoolType.class
org\sturgeon\sdial\mobileapp\utils\SchoolFeesBalanceResponse.class
org\sturgeon\sdial\common\model\forms\SchoolLevelPeriodTotalForm.class
org\sturgeon\sdial\common\model\forms\SubscriberCreateForm.class
org\sturgeon\sdial\ussd\states\State$6.class
org\sturgeon\sdial\portal\controller\ExceptionHandlerControllerAdvice.class
org\sturgeon\sdial\common\model\forms\ExamCreateForm.class
org\sturgeon\sdial\mobileapp\utils\AnnouncementResponse.class
org\sturgeon\sdial\common\service\school\ExamResultsService.class
org\sturgeon\sdial\common\model\SchoolLevel.class
org\sturgeon\sdial\mobileapp\utils\VerificationResponse.class
org\sturgeon\sdial\common\model\SubscriptionRequest.class
org\sturgeon\sdial\common\repository\SchoolBioRepository.class
org\sturgeon\sdial\sms\handler\SmsHandler.class
org\sturgeon\sdial\mobileapp\utils\EventResponse.class
org\sturgeon\sdial\common\model\FeeItem.class
org\sturgeon\sdial\common\repository\EventRepository.class
org\sturgeon\sdial\common\model\FeeItemAmount.class
org\sturgeon\sdial\sms\utils\UjumbeSMSResponse.class
org\sturgeon\sdial\common\service\school\ExamServiceImpl.class
org\sturgeon\sdial\common\model\Subscriber.class
org\sturgeon\sdial\common\model\forms\StudentCreateForm.class
org\sturgeon\sdial\mobileapp\utils\SchoolResponse.class
org\sturgeon\sdial\common\model\School.class
org\sturgeon\sdial\sms\utils\UjumbeSMSResponse$DateTime.class
org\sturgeon\sdial\common\model\SchoolLevelPeriod.class
org\sturgeon\sdial\mobileapp\utils\SchoolBioResponse.class
org\sturgeon\sdial\common\repository\SmsContactRepository.class
org\sturgeon\sdial\mobileapp\utils\JCMNotification.class
org\sturgeon\sdial\common\model\forms\SmsContactGroupCreateForm.class
org\sturgeon\sdial\common\model\SchoolReferral.class
org\sturgeon\sdial\common\repository\SubscriptionRequestRepository.class
org\sturgeon\sdial\common\model\forms\UserCreateForm.class
org\sturgeon\sdial\mobileapp\utils\RegistrationResponse.class
