C:\Users\Roy\Documents\ShuleDial\ShuleDialCore\src\main\java\org\sturgeon\sdial\portal\service\handler\UploadHandler.java
C:\Users\Roy\Documents\ShuleDial\ShuleDialCore\src\main\java\org\sturgeon\sdial\common\repository\SmsContactRepository.java
C:\Users\Roy\Documents\ShuleDial\ShuleDialCore\src\main\java\org\sturgeon\sdial\common\repository\StudentRepository.java
C:\Users\Roy\Documents\ShuleDial\ShuleDialCore\src\main\java\org\sturgeon\sdial\common\service\school\EventServiceImpl.java
C:\Users\Roy\Documents\ShuleDial\ShuleDialCore\src\main\java\org\sturgeon\sdial\mobileapp\utils\SchoolSearchDropdowns.java
C:\Users\Roy\Documents\ShuleDial\ShuleDialCore\src\main\java\org\sturgeon\sdial\common\service\school\SchoolLevelService.java
C:\Users\Roy\Documents\ShuleDial\ShuleDialCore\src\main\java\org\sturgeon\sdial\common\service\school\SmsContactService.java
C:\Users\Roy\Documents\ShuleDial\ShuleDialCore\src\main\java\org\sturgeon\sdial\common\service\school\SchoolFeesService.java
C:\Users\Roy\Documents\ShuleDial\ShuleDialCore\src\main\java\org\sturgeon\sdial\common\service\school\SchoolFeesServiceImpl.java
C:\Users\Roy\Documents\ShuleDial\ShuleDialCore\src\main\java\org\sturgeon\sdial\mobileapp\utils\SchoolLevelResponse.java
C:\Users\Roy\Documents\ShuleDial\ShuleDialCore\src\main\java\org\sturgeon\sdial\portal\controller\UploadController.java
C:\Users\Roy\Documents\ShuleDial\ShuleDialCore\src\main\java\org\sturgeon\sdial\portal\utilpojos\ParentSubtable.java
C:\Users\Roy\Documents\ShuleDial\ShuleDialCore\src\main\java\org\sturgeon\sdial\common\model\validator\UserCreateFormValidator.java
C:\Users\Roy\Documents\ShuleDial\ShuleDialCore\src\main\java\org\sturgeon\sdial\sms\handler\SmsHandler.java
C:\Users\Roy\Documents\ShuleDial\ShuleDialCore\src\main\java\org\sturgeon\sdial\common\repository\SubCountyRepository.java
C:\Users\Roy\Documents\ShuleDial\ShuleDialCore\src\main\java\org\sturgeon\sdial\common\service\school\SchoolPeriodService.java
C:\Users\Roy\Documents\ShuleDial\ShuleDialCore\src\main\java\org\sturgeon\sdial\common\repository\FeeItemAmountRepository.java
C:\Users\Roy\Documents\ShuleDial\ShuleDialCore\src\main\java\org\sturgeon\sdial\common\repository\EventStudentGroupRepository.java
C:\Users\Roy\Documents\ShuleDial\ShuleDialCore\src\main\java\org\sturgeon\sdial\common\repository\QualificationLevelRepository.java
C:\Users\Roy\Documents\ShuleDial\ShuleDialCore\src\main\java\org\sturgeon\sdial\mobileapp\utils\SchoolBioResponse.java
C:\Users\Roy\Documents\ShuleDial\ShuleDialCore\src\main\java\org\sturgeon\sdial\mobileapp\service\SubscriberServiceImpl.java
C:\Users\Roy\Documents\ShuleDial\ShuleDialCore\src\main\java\org\sturgeon\sdial\common\model\forms\ExamResultsForm.java
C:\Users\Roy\Documents\ShuleDial\ShuleDialCore\src\main\java\org\sturgeon\sdial\common\model\Student.java
C:\Users\Roy\Documents\ShuleDial\ShuleDialCore\src\main\java\org\sturgeon\sdial\common\repository\CountyRepository.java
C:\Users\Roy\Documents\ShuleDial\ShuleDialCore\src\main\java\org\sturgeon\sdial\common\service\school\AnnouncementService.java
C:\Users\Roy\Documents\ShuleDial\ShuleDialCore\src\main\java\org\sturgeon\sdial\common\model\FeeItem.java
C:\Users\Roy\Documents\ShuleDial\ShuleDialCore\src\main\java\org\sturgeon\sdial\common\model\forms\FeeItemForm.java
C:\Users\Roy\Documents\ShuleDial\ShuleDialCore\src\main\java\org\sturgeon\sdial\common\model\PortalUser.java
C:\Users\Roy\Documents\ShuleDial\ShuleDialCore\src\main\java\org\sturgeon\sdial\common\repository\AdmissionRepository.java
C:\Users\Roy\Documents\ShuleDial\ShuleDialCore\src\main\java\org\sturgeon\sdial\sms\utils\SmsRequest.java
C:\Users\Roy\Documents\ShuleDial\ShuleDialCore\src\main\java\org\sturgeon\sdial\common\repository\ExamRepository.java
C:\Users\Roy\Documents\ShuleDial\ShuleDialCore\src\main\java\org\sturgeon\sdial\common\model\forms\DirectMessageSchoolForm.java
C:\Users\Roy\Documents\ShuleDial\ShuleDialCore\src\main\java\org\sturgeon\sdial\portal\controller\LoginController.java
C:\Users\Roy\Documents\ShuleDial\ShuleDialCore\src\main\java\org\sturgeon\sdial\sms\service\SmsServiceImpl.java
C:\Users\Roy\Documents\ShuleDial\ShuleDialCore\src\main\java\org\sturgeon\sdial\Application.java
C:\Users\Roy\Documents\ShuleDial\ShuleDialCore\src\main\java\org\sturgeon\sdial\common\model\Admission.java
C:\Users\Roy\Documents\ShuleDial\ShuleDialCore\src\main\java\org\sturgeon\sdial\mobileapp\utils\HeaderRequestInterceptor.java
C:\Users\Roy\Documents\ShuleDial\ShuleDialCore\src\main\java\org\sturgeon\sdial\mobileapp\utils\SchoolTypeResponse.java
C:\Users\Roy\Documents\ShuleDial\ShuleDialCore\src\main\java\org\sturgeon\sdial\common\model\forms\StudentGroupCreateForm.java
C:\Users\Roy\Documents\ShuleDial\ShuleDialCore\src\main\java\org\sturgeon\sdial\mobileapp\utils\LoginResponse.java
C:\Users\Roy\Documents\ShuleDial\ShuleDialCore\src\main\java\org\sturgeon\sdial\portal\service\currentuser\CurrentUserDetailsService.java
C:\Users\Roy\Documents\ShuleDial\ShuleDialCore\src\main\java\org\sturgeon\sdial\common\model\forms\PushNotificationForm.java
C:\Users\Roy\Documents\ShuleDial\ShuleDialCore\src\main\java\org\sturgeon\sdial\common\model\SchoolLevelPeriod.java
C:\Users\Roy\Documents\ShuleDial\ShuleDialCore\src\main\java\org\sturgeon\sdial\sms\service\SmsService.java
C:\Users\Roy\Documents\ShuleDial\ShuleDialCore\src\main\java\org\sturgeon\sdial\mobileapp\utils\AdmissionDropdowns.java
C:\Users\Roy\Documents\ShuleDial\ShuleDialCore\src\main\java\org\sturgeon\sdial\common\repository\SchoolReferralRepository.java
C:\Users\Roy\Documents\ShuleDial\ShuleDialCore\src\main\java\org\sturgeon\sdial\common\service\school\SmsContactServiceImpl.java
C:\Users\Roy\Documents\ShuleDial\ShuleDialCore\src\main\java\org\sturgeon\sdial\common\model\Announcement.java
C:\Users\Roy\Documents\ShuleDial\ShuleDialCore\src\main\java\org\sturgeon\sdial\common\model\forms\SmsMessageForm.java
C:\Users\Roy\Documents\ShuleDial\ShuleDialCore\src\main\java\org\sturgeon\sdial\common\model\forms\SchoolReferralForm.java
C:\Users\Roy\Documents\ShuleDial\ShuleDialCore\src\main\java\org\sturgeon\sdial\portal\controller\RegistrationController.java
C:\Users\Roy\Documents\ShuleDial\ShuleDialCore\src\main\java\org\sturgeon\sdial\common\model\DirectMessage.java
C:\Users\Roy\Documents\ShuleDial\ShuleDialCore\src\main\java\org\sturgeon\sdial\mobileapp\utils\JCMNotification.java
C:\Users\Roy\Documents\ShuleDial\ShuleDialCore\src\main\java\org\sturgeon\sdial\common\model\validator\StudentCreateFormValidator.java
C:\Users\Roy\Documents\ShuleDial\ShuleDialCore\src\main\java\org\sturgeon\sdial\common\model\forms\VerificationForm.java
C:\Users\Roy\Documents\ShuleDial\ShuleDialCore\src\main\java\org\sturgeon\sdial\common\service\school\ExamServiceImpl.java
C:\Users\Roy\Documents\ShuleDial\ShuleDialCore\src\main\java\org\sturgeon\sdial\common\model\forms\SchoolLevelPeriodForm.java
C:\Users\Roy\Documents\ShuleDial\ShuleDialCore\src\main\java\org\sturgeon\sdial\mobileapp\utils\SchoolFeesBalanceResponse.java
C:\Users\Roy\Documents\ShuleDial\ShuleDialCore\src\main\java\org\sturgeon\sdial\portal\service\user\UserServiceImpl.java
C:\Users\Roy\Documents\ShuleDial\ShuleDialCore\src\main\java\org\sturgeon\sdial\common\model\ExamResults.java
C:\Users\Roy\Documents\ShuleDial\ShuleDialCore\src\main\java\org\sturgeon\sdial\common\model\SchoolLevelPeriodTotal.java
C:\Users\Roy\Documents\ShuleDial\ShuleDialCore\src\main\java\org\sturgeon\sdial\mobileapp\utils\SchoolPeriodResponse.java
C:\Users\Roy\Documents\ShuleDial\ShuleDialCore\src\main\java\org\sturgeon\sdial\common\model\forms\SchoolLevelForm.java
C:\Users\Roy\Documents\ShuleDial\ShuleDialCore\src\main\java\org\sturgeon\sdial\common\model\forms\SchoolCreateForm.java
C:\Users\Roy\Documents\ShuleDial\ShuleDialCore\src\main\java\org\sturgeon\sdial\common\service\school\StudentService.java
C:\Users\Roy\Documents\ShuleDial\ShuleDialCore\src\main\java\org\sturgeon\sdial\ussd\utils\Response.java
C:\Users\Roy\Documents\ShuleDial\ShuleDialCore\src\main\java\org\sturgeon\sdial\common\model\FeeBalance.java
C:\Users\Roy\Documents\ShuleDial\ShuleDialCore\src\main\java\org\sturgeon\sdial\common\model\Subscriber.java
C:\Users\Roy\Documents\ShuleDial\ShuleDialCore\src\main\java\org\sturgeon\sdial\ussd\states\StateInterface.java
C:\Users\Roy\Documents\ShuleDial\ShuleDialCore\src\main\java\org\sturgeon\sdial\common\model\forms\UserCreateForm.java
C:\Users\Roy\Documents\ShuleDial\ShuleDialCore\src\main\java\org\sturgeon\sdial\ussd\handlers\ProcessUSSD.java
C:\Users\Roy\Documents\ShuleDial\ShuleDialCore\src\main\java\org\sturgeon\sdial\common\service\school\ExamService.java
C:\Users\Roy\Documents\ShuleDial\ShuleDialCore\src\main\java\org\sturgeon\sdial\mobileapp\utils\SchoolFeesDropdowns.java
C:\Users\Roy\Documents\ShuleDial\ShuleDialCore\src\main\java\org\sturgeon\sdial\common\model\forms\SubscriberCreateForm.java
C:\Users\Roy\Documents\ShuleDial\ShuleDialCore\src\main\java\org\sturgeon\sdial\common\service\school\SchoolPeriodServiceImpl.java
C:\Users\Roy\Documents\ShuleDial\ShuleDialCore\src\main\java\org\sturgeon\sdial\common\model\forms\ParentEditForm.java
C:\Users\Roy\Documents\ShuleDial\ShuleDialCore\src\main\java\org\sturgeon\sdial\common\model\forms\SubscriberAddForm.java
C:\Users\Roy\Documents\ShuleDial\ShuleDialCore\src\main\java\org\sturgeon\sdial\common\model\SchoolType.java
C:\Users\Roy\Documents\ShuleDial\ShuleDialCore\src\main\java\org\sturgeon\sdial\common\repository\SubscriberRepository.java
C:\Users\Roy\Documents\ShuleDial\ShuleDialCore\src\main\java\org\sturgeon\sdial\ussd\controller\UssdController.java
C:\Users\Roy\Documents\ShuleDial\ShuleDialCore\src\main\java\org\sturgeon\sdial\common\model\forms\SchoolPeriodForm.java
C:\Users\Roy\Documents\ShuleDial\ShuleDialCore\src\main\java\org\sturgeon\sdial\mobileapp\service\JCMPushNotificationService.java
C:\Users\Roy\Documents\ShuleDial\ShuleDialCore\src\main\java\org\sturgeon\sdial\common\model\forms\SchoolBioForm.java
C:\Users\Roy\Documents\ShuleDial\ShuleDialCore\src\main\java\org\sturgeon\sdial\common\repository\AnnouncementRepository.java
C:\Users\Roy\Documents\ShuleDial\ShuleDialCore\src\main\java\org\sturgeon\sdial\ussd\transport\AirtelRequest.java
C:\Users\Roy\Documents\ShuleDial\ShuleDialCore\src\main\java\org\sturgeon\sdial\common\service\school\ExamResultsServiceImpl.java
C:\Users\Roy\Documents\ShuleDial\ShuleDialCore\src\main\java\org\sturgeon\sdial\common\service\school\SchoolTypeService.java
C:\Users\Roy\Documents\ShuleDial\ShuleDialCore\src\main\java\org\sturgeon\sdial\common\model\forms\ExamCreateForm.java
C:\Users\Roy\Documents\ShuleDial\ShuleDialCore\src\main\java\org\sturgeon\sdial\mobileapp\utils\VerificationResponse.java
C:\Users\Roy\Documents\ShuleDial\ShuleDialCore\src\main\java\org\sturgeon\sdial\common\repository\SubscriberStudentRepository.java
C:\Users\Roy\Documents\ShuleDial\ShuleDialCore\src\main\java\org\sturgeon\sdial\common\service\school\ExamResultsService.java
C:\Users\Roy\Documents\ShuleDial\ShuleDialCore\src\main\java\org\sturgeon\sdial\common\model\forms\SchoolLevelPeriodTotalForm.java
C:\Users\Roy\Documents\ShuleDial\ShuleDialCore\src\main\java\org\sturgeon\sdial\common\service\school\SchoolServiceImpl.java
C:\Users\Roy\Documents\ShuleDial\ShuleDialCore\src\main\java\org\sturgeon\sdial\common\model\forms\AnnouncementCreateForm.java
C:\Users\Roy\Documents\ShuleDial\ShuleDialCore\src\main\java\org\sturgeon\sdial\common\service\school\AnnouncementServiceImpl.java
C:\Users\Roy\Documents\ShuleDial\ShuleDialCore\src\main\java\org\sturgeon\sdial\mobileapp\utils\RegistrationResponse.java
C:\Users\Roy\Documents\ShuleDial\ShuleDialCore\src\main\java\org\sturgeon\sdial\common\model\validator\SchoolCreateFormValidator.java
C:\Users\Roy\Documents\ShuleDial\ShuleDialCore\src\main\java\org\sturgeon\sdial\common\model\AnnouncementStudentGroup.java
C:\Users\Roy\Documents\ShuleDial\ShuleDialCore\src\main\java\org\sturgeon\sdial\common\model\forms\EmailAddForm.java
C:\Users\Roy\Documents\ShuleDial\ShuleDialCore\src\main\java\org\sturgeon\sdial\common\model\StudentGroup.java
C:\Users\Roy\Documents\ShuleDial\ShuleDialCore\src\main\java\org\sturgeon\sdial\mobileapp\utils\CountyResponse.java
C:\Users\Roy\Documents\ShuleDial\ShuleDialCore\src\main\java\org\sturgeon\sdial\mobileapp\utils\StudentResponse.java
C:\Users\Roy\Documents\ShuleDial\ShuleDialCore\src\main\java\org\sturgeon\sdial\common\model\forms\EventCreateForm.java
C:\Users\Roy\Documents\ShuleDial\ShuleDialCore\src\main\java\org\sturgeon\sdial\common\model\SchoolLevel.java
C:\Users\Roy\Documents\ShuleDial\ShuleDialCore\src\main\java\org\sturgeon\sdial\common\model\forms\SelectedSchoolLevelForm.java
C:\Users\Roy\Documents\ShuleDial\ShuleDialCore\src\main\java\org\sturgeon\sdial\common\model\SmsContactGroup.java
C:\Users\Roy\Documents\ShuleDial\ShuleDialCore\src\main\java\org\sturgeon\sdial\common\repository\EmailRepository.java
C:\Users\Roy\Documents\ShuleDial\ShuleDialCore\src\main\java\org\sturgeon\sdial\common\model\forms\SmsContactCreateForm.java
C:\Users\Roy\Documents\ShuleDial\ShuleDialCore\src\main\java\org\sturgeon\sdial\common\service\school\SchoolService.java
C:\Users\Roy\Documents\ShuleDial\ShuleDialCore\src\main\java\org\sturgeon\sdial\common\service\school\SchoolLevelServiceImpl.java
C:\Users\Roy\Documents\ShuleDial\ShuleDialCore\src\main\java\org\sturgeon\sdial\mobileapp\utils\AnnouncementResponse.java
C:\Users\Roy\Documents\ShuleDial\ShuleDialCore\src\main\java\org\sturgeon\sdial\common\model\SchoolReferral.java
C:\Users\Roy\Documents\ShuleDial\ShuleDialCore\src\main\java\org\sturgeon\sdial\common\service\school\StudentServiceImpl.java
C:\Users\Roy\Documents\ShuleDial\ShuleDialCore\src\main\java\org\sturgeon\sdial\mobileapp\utils\FeeItemResponse.java
C:\Users\Roy\Documents\ShuleDial\ShuleDialCore\src\main\java\org\sturgeon\sdial\common\model\forms\AdmissionForm.java
C:\Users\Roy\Documents\ShuleDial\ShuleDialCore\src\main\java\org\sturgeon\sdial\common\model\forms\SmsContactGroupCreateForm.java
C:\Users\Roy\Documents\ShuleDial\ShuleDialCore\src\main\java\org\sturgeon\sdial\common\model\SubscriptionRequest.java
C:\Users\Roy\Documents\ShuleDial\ShuleDialCore\src\main\java\org\sturgeon\sdial\common\repository\DirectMessageRepository.java
C:\Users\Roy\Documents\ShuleDial\ShuleDialCore\src\main\java\org\sturgeon\sdial\common\repository\UserRepository.java
C:\Users\Roy\Documents\ShuleDial\ShuleDialCore\src\main\java\org\sturgeon\sdial\common\repository\ExamResultsRepository.java
C:\Users\Roy\Documents\ShuleDial\ShuleDialCore\src\main\java\org\sturgeon\sdial\ussd\transport\SafaricomRequest.java
C:\Users\Roy\Documents\ShuleDial\ShuleDialCore\src\main\java\org\sturgeon\sdial\common\model\forms\StudentEditForm.java
C:\Users\Roy\Documents\ShuleDial\ShuleDialCore\src\main\java\org\sturgeon\sdial\common\model\SmsContact.java
C:\Users\Roy\Documents\ShuleDial\ShuleDialCore\src\main\java\org\sturgeon\sdial\common\repository\SchoolRepository.java
C:\Users\Roy\Documents\ShuleDial\ShuleDialCore\src\main\java\org\sturgeon\sdial\common\service\school\SchoolTypeServiceImpl.java
C:\Users\Roy\Documents\ShuleDial\ShuleDialCore\src\main\java\org\sturgeon\sdial\common\model\forms\StudentCreateForm.java
C:\Users\Roy\Documents\ShuleDial\ShuleDialCore\src\main\java\org\sturgeon\sdial\common\model\QualificationLevel.java
C:\Users\Roy\Documents\ShuleDial\ShuleDialCore\src\main\java\org\sturgeon\sdial\common\repository\StudentGroupRepository.java
C:\Users\Roy\Documents\ShuleDial\ShuleDialCore\src\main\java\org\sturgeon\sdial\common\repository\SmsMessageRepository.java
C:\Users\Roy\Documents\ShuleDial\ShuleDialCore\src\main\java\org\sturgeon\sdial\mobileapp\utils\EventResponse.java
C:\Users\Roy\Documents\ShuleDial\ShuleDialCore\src\main\java\org\sturgeon\sdial\common\repository\FeeBalanceRepository.java
C:\Users\Roy\Documents\ShuleDial\ShuleDialCore\src\main\java\org\sturgeon\sdial\common\model\forms\FeeItemAmountForm.java
C:\Users\Roy\Documents\ShuleDial\ShuleDialCore\src\main\java\org\sturgeon\sdial\portal\controller\PortalController.java
C:\Users\Roy\Documents\ShuleDial\ShuleDialCore\src\main\java\org\sturgeon\sdial\sms\handler\SMSSendService.java
C:\Users\Roy\Documents\ShuleDial\ShuleDialCore\src\main\java\org\sturgeon\sdial\common\repository\SchoolLevelPeriodRepository.java
C:\Users\Roy\Documents\ShuleDial\ShuleDialCore\src\main\java\org\sturgeon\sdial\sms\utils\SmsMessageBag.java
C:\Users\Roy\Documents\ShuleDial\ShuleDialCore\src\main\java\org\sturgeon\sdial\portal\service\user\UserService.java
C:\Users\Roy\Documents\ShuleDial\ShuleDialCore\src\main\java\org\sturgeon\sdial\common\model\forms\ParentAddForm.java
C:\Users\Roy\Documents\ShuleDial\ShuleDialCore\src\main\java\org\sturgeon\sdial\ussd\states\State.java
C:\Users\Roy\Documents\ShuleDial\ShuleDialCore\src\main\java\org\sturgeon\sdial\common\model\forms\PhoneNumberAddForm.java
C:\Users\Roy\Documents\ShuleDial\ShuleDialCore\src\main\java\org\sturgeon\sdial\ussd\session\SessionManager.java
C:\Users\Roy\Documents\ShuleDial\ShuleDialCore\src\main\java\org\sturgeon\sdial\common\model\EventStudentGroup.java
C:\Users\Roy\Documents\ShuleDial\ShuleDialCore\src\main\java\org\sturgeon\sdial\common\model\SubCounty.java
C:\Users\Roy\Documents\ShuleDial\ShuleDialCore\src\main\java\org\sturgeon\sdial\common\model\SchoolPeriod.java
C:\Users\Roy\Documents\ShuleDial\ShuleDialCore\src\main\java\org\sturgeon\sdial\common\repository\SchoolTypeRepository.java
C:\Users\Roy\Documents\ShuleDial\ShuleDialCore\src\main\java\org\sturgeon\sdial\common\model\Event.java
C:\Users\Roy\Documents\ShuleDial\ShuleDialCore\src\main\java\org\sturgeon\sdial\common\repository\PhoneNumberRepository.java
C:\Users\Roy\Documents\ShuleDial\ShuleDialCore\src\main\java\org\sturgeon\sdial\portal\controller\CurrentUserControllerAdvice.java
C:\Users\Roy\Documents\ShuleDial\ShuleDialCore\src\main\java\org\sturgeon\sdial\common\model\forms\StudentCreateFormApp.java
C:\Users\Roy\Documents\ShuleDial\ShuleDialCore\src\main\java\org\sturgeon\sdial\common\model\CurrentUser.java
C:\Users\Roy\Documents\ShuleDial\ShuleDialCore\src\main\java\org\sturgeon\sdial\common\repository\SchoolPeriodRepository.java
C:\Users\Roy\Documents\ShuleDial\ShuleDialCore\src\main\java\org\sturgeon\sdial\common\model\SchoolBio.java
C:\Users\Roy\Documents\ShuleDial\ShuleDialCore\src\main\java\org\sturgeon\sdial\mobileapp\utils\ExamResultsResponse.java
C:\Users\Roy\Documents\ShuleDial\ShuleDialCore\src\main\java\org\sturgeon\sdial\mobileapp\utils\PushNotification.java
C:\Users\Roy\Documents\ShuleDial\ShuleDialCore\src\main\java\org\sturgeon\sdial\mobileapp\service\SubscriberService.java
C:\Users\Roy\Documents\ShuleDial\ShuleDialCore\src\main\java\org\sturgeon\sdial\sms\utils\UjumbeSMSResponse.java
C:\Users\Roy\Documents\ShuleDial\ShuleDialCore\src\main\java\org\sturgeon\sdial\ussd\handlers\ServiceManager.java
C:\Users\Roy\Documents\ShuleDial\ShuleDialCore\src\main\java\org\sturgeon\sdial\common\model\County.java
C:\Users\Roy\Documents\ShuleDial\ShuleDialCore\src\main\java\org\sturgeon\sdial\common\model\forms\FeeBalanceForm.java
C:\Users\Roy\Documents\ShuleDial\ShuleDialCore\src\main\java\org\sturgeon\sdial\common\model\School.java
C:\Users\Roy\Documents\ShuleDial\ShuleDialCore\src\main\java\org\sturgeon\sdial\common\service\school\EventService.java
C:\Users\Roy\Documents\ShuleDial\ShuleDialCore\src\main\java\org\sturgeon\sdial\ussd\session\Session.java
C:\Users\Roy\Documents\ShuleDial\ShuleDialCore\src\main\java\org\sturgeon\sdial\common\repository\SchoolLevelRepository.java
C:\Users\Roy\Documents\ShuleDial\ShuleDialCore\src\main\java\org\sturgeon\sdial\mobileapp\utils\SchoolResponse.java
C:\Users\Roy\Documents\ShuleDial\ShuleDialCore\src\main\java\org\sturgeon\sdial\common\model\FeeItemAmount.java
C:\Users\Roy\Documents\ShuleDial\ShuleDialCore\src\main\java\org\sturgeon\sdial\common\repository\AnnouncementStudentGroupRepository.java
C:\Users\Roy\Documents\ShuleDial\ShuleDialCore\src\main\java\org\sturgeon\sdial\mobileapp\controller\MobileAppController.java
C:\Users\Roy\Documents\ShuleDial\ShuleDialCore\src\main\java\org\sturgeon\sdial\common\repository\SmsContactGroupRepository.java
C:\Users\Roy\Documents\ShuleDial\ShuleDialCore\src\main\java\org\sturgeon\sdial\mobileapp\utils\FirebaseResponse.java
C:\Users\Roy\Documents\ShuleDial\ShuleDialCore\src\main\java\org\sturgeon\sdial\common\model\Exam.java
C:\Users\Roy\Documents\ShuleDial\ShuleDialCore\src\main\java\org\sturgeon\sdial\common\model\forms\StudentGroupAddForm.java
C:\Users\Roy\Documents\ShuleDial\ShuleDialCore\src\main\java\org\sturgeon\sdial\common\repository\FeeItemRepository.java
C:\Users\Roy\Documents\ShuleDial\ShuleDialCore\src\main\java\org\sturgeon\sdial\common\repository\SchoolBioRepository.java
C:\Users\Roy\Documents\ShuleDial\ShuleDialCore\src\main\java\org\sturgeon\sdial\common\model\forms\DirectMessageSubscriberForm.java
C:\Users\Roy\Documents\ShuleDial\ShuleDialCore\src\main\java\org\sturgeon\sdial\common\model\forms\SubscriberLoginForm.java
C:\Users\Roy\Documents\ShuleDial\ShuleDialCore\src\main\java\org\sturgeon\sdial\common\model\PhoneNumber.java
C:\Users\Roy\Documents\ShuleDial\ShuleDialCore\src\main\java\org\sturgeon\sdial\common\model\SubscriberStudent.java
C:\Users\Roy\Documents\ShuleDial\ShuleDialCore\src\main\java\org\sturgeon\sdial\common\repository\EventRepository.java
C:\Users\Roy\Documents\ShuleDial\ShuleDialCore\src\main\java\org\sturgeon\sdial\common\model\Email.java
C:\Users\Roy\Documents\ShuleDial\ShuleDialCore\src\main\java\org\sturgeon\sdial\portal\controller\ExceptionHandlerControllerAdvice.java
C:\Users\Roy\Documents\ShuleDial\ShuleDialCore\src\main\java\org\sturgeon\sdial\common\repository\SchoolLevelPeriodTotalRepository.java
C:\Users\Roy\Documents\ShuleDial\ShuleDialCore\src\main\java\org\sturgeon\sdial\portal\configuration\SecurityConfiguration.java
C:\Users\Roy\Documents\ShuleDial\ShuleDialCore\src\main\java\org\sturgeon\sdial\mobileapp\utils\SchoolPeriodTotalResponse.java
C:\Users\Roy\Documents\ShuleDial\ShuleDialCore\src\main\java\org\sturgeon\sdial\common\model\SmsMessage.java
C:\Users\Roy\Documents\ShuleDial\ShuleDialCore\src\main\java\org\sturgeon\sdial\common\repository\SubscriptionRequestRepository.java
C:\Users\Roy\Documents\ShuleDial\ShuleDialCore\src\main\java\org\sturgeon\sdial\common\model\forms\SchoolTypeAddForm.java
C:\Users\Roy\Documents\ShuleDial\ShuleDialCore\src\main\java\org\sturgeon\sdial\mobileapp\utils\SchoolBioMinimalResponse.java
